…
``` r
combinedstates %>% 
  group_by(state)%>%
  arrange(desc(averagesalary))%>%
  select(ratio)
```

    ## # A tibble: 50 x 2
    ## # Groups:   state [50]
    ##    state         ratio
    ##    <fct>         <dbl>
    ##  1 Connecticut    14.4
    ##  2 Alaska         17.6
    ##  3 New York       15.2
    ##  4 New Jersey     13.8
    ##  5 Pennsylvania   17.1
    ##  6 California     24  
    ##  7 Michigan       20.1
    ##  8 Maryland       17  
    ##  9 Rhode Island   14.7
    ## 10 Massachusetts  14.8
    ## # ... with 40 more rows

``` r
combinedstates %>% 
  group_by(state)%>%
  arrange(desc(ratio))%>%
  select(pop)
```

    ## # A tibble: 50 x 2
    ## # Groups:   state [50]
    ##    state        pop
    ##    <fct>      <int>
    ##  1 Utah        1723
    ##  2 California 29760
    ##  3 Washington  4867
    ##  4 Michigan    9295
    ##  5 Oregon      2842
    ##  6 Arizona     3665
    ##  7 Florida    12938
    ##  8 Idaho       1007
    ##  9 Nevada      1202
    ## 10 Tennessee   4877
    ## # ... with 40 more rows
…
